# Blender v2.76 (sub 0) OBJ File: 'borracha.blend'
# www.blender.org
mtllib borracha.mtl
o Cube
v 0.000000 -0.577590 -0.000000
v 0.230389 -0.577590 -0.000000
v 0.460777 -0.577590 -0.000000
v 0.691166 -0.577590 -0.000000
v 0.000000 -0.577590 0.765935
v 0.000000 -0.577059 1.528716
v -0.000000 -0.575466 2.285188
v -0.230389 -0.577590 -0.000000
v -0.460777 -0.577590 -0.000001
v -0.691166 -0.577590 -0.000001
v 0.000000 -0.577590 -0.765936
v 0.000000 -0.577059 -1.529394
v 0.000000 -0.575466 -2.287898
v 0.230389 -0.577590 -0.765936
v 0.460777 -0.577590 -0.765936
v 0.691166 -0.577590 -0.765935
v 0.230389 -0.577059 -1.529394
v 0.460777 -0.577125 -1.529703
v 0.691166 -0.577324 -1.530632
v 0.230389 -0.575466 -2.287898
v 0.460777 -0.575731 -2.289136
v 0.691166 -0.576528 -2.292852
v 0.230389 -0.577590 0.765935
v 0.230389 -0.577059 1.528716
v 0.230389 -0.575466 2.285188
v 0.460777 -0.577590 0.765935
v 0.460777 -0.577125 1.529110
v 0.460777 -0.575731 2.286765
v 0.691166 -0.577590 0.765935
v 0.691166 -0.577324 1.530294
v 0.691166 -0.576528 2.291497
v -0.230389 -0.577590 0.765935
v -0.460777 -0.577590 0.765935
v -0.691166 -0.577590 0.765935
v -0.230389 -0.577059 1.528716
v -0.460777 -0.577125 1.529110
v -0.691166 -0.577324 1.530293
v -0.230389 -0.575466 2.285187
v -0.460777 -0.575731 2.286765
v -0.691166 -0.576528 2.291497
v -0.230388 -0.577590 -0.765936
v -0.230388 -0.577059 -1.529394
v -0.230388 -0.575466 -2.287898
v -0.460777 -0.577590 -0.765936
v -0.460777 -0.577125 -1.529704
v -0.460777 -0.575731 -2.289137
v -0.691166 -0.577590 -0.765936
v -0.691166 -0.577324 -1.530633
v -0.691166 -0.576528 -2.292853
v -0.000000 0.577590 -0.736983
v -0.000000 0.577590 -1.502918
v 0.000000 0.577059 -2.265699
v 0.000000 0.575466 -3.022170
v -0.230389 0.577590 -0.736983
v -0.460777 0.577590 -0.736984
v -0.691166 0.577590 -0.736984
v -0.000000 0.577590 0.028952
v -0.000000 0.577059 0.792411
v -0.000000 0.575466 1.550914
v 0.230388 0.577590 -0.736983
v 0.460777 0.577590 -0.736982
v 0.691166 0.577590 -0.736982
v 0.230389 0.577590 -1.502918
v 0.230389 0.577059 -2.265699
v 0.230389 0.575466 -3.022170
v 0.460777 0.577590 -1.502918
v 0.460777 0.577125 -2.266093
v 0.460777 0.575731 -3.023747
v 0.691166 0.577590 -1.502917
v 0.691166 0.577324 -2.267276
v 0.691166 0.576528 -3.028479
v -0.230389 0.577590 -1.502919
v -0.460777 0.577590 -1.502919
v -0.691166 0.577590 -1.502919
v -0.230389 0.577059 -2.265699
v -0.460777 0.577125 -2.266094
v -0.691166 0.577324 -2.267277
v -0.230388 0.575466 -3.022171
v -0.460777 0.575731 -3.023748
v -0.691166 0.576528 -3.028481
v -0.230389 0.577590 0.028952
v -0.230389 0.577059 0.792410
v -0.230389 0.575466 1.550914
v -0.460777 0.577590 0.028952
v -0.460777 0.577125 0.792720
v -0.460778 0.575731 1.552152
v -0.691166 0.577590 0.028952
v -0.691166 0.577324 0.793648
v -0.691166 0.576528 1.555868
v 0.230388 0.577590 0.028953
v 0.460777 0.577590 0.028953
v 0.691166 0.577590 0.028953
v 0.230388 0.577059 0.792411
v 0.460777 0.577125 0.792721
v 0.691165 0.577324 0.793650
v 0.230388 0.575466 1.550915
v 0.460777 0.575731 1.552154
v 0.691165 0.576528 1.555870
v -0.000000 0.000000 2.695250
v 0.230388 0.000000 2.695250
v 0.460777 0.000000 2.695251
v 0.691166 0.000000 2.695251
v -0.000000 0.144397 2.603127
v -0.000000 0.288264 2.508527
v -0.000000 0.431069 2.408973
v -0.230389 0.000000 2.695250
v -0.460777 0.000000 2.695250
v -0.691166 0.000000 2.695249
v -0.000000 -0.144397 2.787373
v -0.000000 -0.288264 2.876341
v -0.000000 -0.431069 2.959000
v 0.230388 -0.144397 2.787373
v 0.460777 -0.144397 2.787373
v 0.691166 -0.144397 2.787374
v 0.230388 -0.288264 2.876341
v 0.460777 -0.288330 2.876736
v 0.691166 -0.288529 2.877919
v 0.230389 -0.431069 2.959000
v 0.460777 -0.431334 2.960578
v 0.691166 -0.432130 2.965310
v 0.230388 0.144397 2.603128
v 0.230388 0.288264 2.508528
v 0.230388 0.431069 2.408973
v 0.460777 0.144397 2.603128
v 0.460777 0.288330 2.508837
v 0.460777 0.431334 2.410212
v 0.691165 0.144397 2.603128
v 0.691165 0.288529 2.509767
v 0.691165 0.432130 2.413928
v -0.230389 0.144397 2.603127
v -0.460777 0.144397 2.603127
v -0.691166 0.144397 2.603127
v -0.230389 0.288264 2.508527
v -0.460778 0.288330 2.508836
v -0.691166 0.288529 2.509765
v -0.230389 0.431069 2.408972
v -0.460778 0.431334 2.410211
v -0.691166 0.432130 2.413926
v -0.230389 -0.144397 2.787373
v -0.230389 -0.288264 2.876341
v -0.230389 -0.431069 2.959000
v -0.460777 -0.144397 2.787373
v -0.460777 -0.288330 2.876735
v -0.460777 -0.431334 2.960577
v -0.691166 -0.144397 2.787373
v -0.691166 -0.288529 2.877918
v -0.691166 -0.432130 2.965309
v 0.000000 0.000000 -3.432234
v 0.230389 0.000000 -3.432234
v 0.460777 0.000000 -3.432233
v 0.691166 0.000000 -3.432233
v 0.000000 -0.144397 -3.340111
v 0.000000 -0.288264 -3.245510
v 0.000000 -0.431069 -3.145956
v -0.230388 0.000000 -3.432234
v -0.460777 0.000000 -3.432234
v -0.691166 0.000000 -3.432234
v 0.000000 0.144397 -3.524356
v 0.000000 0.288264 -3.613324
v 0.000000 0.431069 -3.695983
v 0.230389 0.144397 -3.524356
v 0.460777 0.144397 -3.524356
v 0.691166 0.144397 -3.524356
v 0.230389 0.288264 -3.613324
v 0.460777 0.288330 -3.613718
v 0.691166 0.288529 -3.614901
v 0.230389 0.431069 -3.695983
v 0.460778 0.431334 -3.697560
v 0.691166 0.432130 -3.702292
v 0.230389 -0.144397 -3.340111
v 0.230389 -0.288264 -3.245510
v 0.230389 -0.431069 -3.145956
v 0.460777 -0.144397 -3.340110
v 0.460777 -0.288330 -3.245821
v 0.460777 -0.431334 -3.147194
v 0.691166 -0.144397 -3.340110
v 0.691166 -0.288529 -3.246749
v 0.691166 -0.432130 -3.150910
v -0.230388 -0.144397 -3.340111
v -0.460777 -0.144397 -3.340111
v -0.691166 -0.144397 -3.340111
v -0.230388 -0.288264 -3.245511
v -0.460777 -0.288330 -3.245821
v -0.691166 -0.288529 -3.246750
v -0.230388 -0.431069 -3.145956
v -0.460777 -0.431334 -3.147195
v -0.691166 -0.432130 -3.150911
v -0.230388 0.144397 -3.524356
v -0.230388 0.288264 -3.613325
v -0.230388 0.431069 -3.695983
v -0.460777 0.144397 -3.524357
v -0.460777 0.288330 -3.613719
v -0.460777 0.431334 -3.697561
v -0.691166 0.144397 -3.524357
v -0.691166 0.288529 -3.614902
v -0.691166 0.432130 -3.702293
v 0.921554 0.000000 -0.368491
v 0.921554 0.000000 -1.134426
v 0.921555 0.000000 -1.900362
v 0.921555 0.000000 -2.666297
v 0.921554 0.144397 -0.460614
v 0.921554 0.288795 -0.552736
v 0.921554 0.433192 -0.644859
v 0.921554 0.000000 0.397445
v 0.921554 0.000000 1.163380
v 0.921554 0.000000 1.929316
v 0.921554 -0.144397 -0.276368
v 0.921554 -0.288795 -0.184245
v 0.921554 -0.433192 -0.092123
v 0.921554 -0.144397 -1.042304
v 0.921554 -0.144397 -1.808239
v 0.921555 -0.144397 -2.574174
v 0.921554 -0.288795 -0.950181
v 0.921554 -0.288795 -1.716116
v 0.921554 -0.288795 -2.482052
v 0.921554 -0.433192 -0.858058
v 0.921554 -0.433192 -1.623994
v 0.921554 -0.433192 -2.389929
v 0.921554 0.144397 -1.226549
v 0.921554 0.288795 -1.318672
v 0.921554 0.433192 -1.410794
v 0.921555 0.144397 -1.992485
v 0.921555 0.288795 -2.084607
v 0.921555 0.433192 -2.176730
v 0.921555 0.144397 -2.758420
v 0.921555 0.288795 -2.850543
v 0.921555 0.433192 -2.942666
v 0.921554 0.144397 0.305322
v 0.921554 0.144397 1.071257
v 0.921554 0.144397 1.837193
v 0.921554 0.288795 0.213199
v 0.921554 0.288795 0.979135
v 0.921554 0.288795 1.745070
v 0.921554 0.433192 0.121076
v 0.921554 0.433192 0.887012
v 0.921554 0.433192 1.652947
v 0.921554 -0.144397 0.489567
v 0.921554 -0.288795 0.581690
v 0.921554 -0.433192 0.673813
v 0.921554 -0.144397 1.255503
v 0.921554 -0.288795 1.347625
v 0.921554 -0.433192 1.439748
v 0.921554 -0.144397 2.021438
v 0.921554 -0.288795 2.113561
v 0.921554 -0.433192 2.205684
v -0.921554 0.000000 -0.368492
v -0.921554 0.144397 -0.460615
v -0.921554 0.288795 -0.552738
v -0.921554 0.433192 -0.644861
v -0.921554 0.000000 -1.134428
v -0.921554 0.000000 -1.900363
v -0.921554 0.000000 -2.666299
v -0.921554 -0.144397 -0.276370
v -0.921554 -0.288795 -0.184247
v -0.921554 -0.433192 -0.092124
v -0.921554 0.000000 0.397443
v -0.921555 0.000000 1.163378
v -0.921555 0.000000 1.929314
v -0.921555 0.144397 0.305320
v -0.921555 0.288795 0.213197
v -0.921555 0.433192 0.121074
v -0.921555 0.144397 1.071255
v -0.921555 0.288795 0.979132
v -0.921555 0.433192 0.887010
v -0.921555 0.144397 1.837191
v -0.921555 0.288795 1.745068
v -0.921555 0.433192 1.652945
v -0.921554 0.144397 -1.226551
v -0.921554 0.144397 -1.992486
v -0.921554 0.144397 -2.758422
v -0.921554 0.288795 -1.318674
v -0.921554 0.288795 -2.084609
v -0.921554 0.288795 -2.850544
v -0.921554 0.433192 -1.410797
v -0.921554 0.433192 -2.176732
v -0.921554 0.433192 -2.942667
v -0.921554 -0.144397 -1.042305
v -0.921554 -0.288795 -0.950182
v -0.921554 -0.433192 -0.858059
v -0.921554 -0.144397 -1.808240
v -0.921554 -0.288795 -1.716118
v -0.921554 -0.433192 -1.623995
v -0.921554 -0.144397 -2.574176
v -0.921554 -0.288795 -2.482053
v -0.921554 -0.433192 -2.389930
v -0.921554 -0.144397 0.489566
v -0.921555 -0.144397 1.255501
v -0.921555 -0.144397 2.021437
v -0.921554 -0.288795 0.581689
v -0.921555 -0.288795 1.347624
v -0.921555 -0.288795 2.113560
v -0.921554 -0.433192 0.673812
v -0.921554 -0.433192 1.439747
v -0.921555 -0.433192 2.205683
v 0.691166 -0.539898 -2.887857
v 0.460777 -0.538703 -2.882283
v 0.230389 -0.538305 -2.880425
v 0.000000 -0.538305 -2.880426
v -0.230388 -0.538305 -2.880426
v -0.460777 -0.538703 -2.882284
v -0.691166 -0.539898 -2.887858
v 0.869378 -0.432952 -2.981281
v 0.869378 -0.288735 -3.074245
v 0.869378 -0.144397 -3.166648
v 0.869378 0.000000 -3.258771
v 0.869378 0.144397 -3.350893
v 0.869378 0.288735 -3.442659
v 0.869379 0.432952 -3.533711
v 0.691166 -0.539898 2.839763
v 0.460777 -0.538703 2.832665
v 0.230389 -0.538305 2.830299
v -0.000000 -0.538305 2.830299
v -0.230389 -0.538305 2.830299
v -0.460777 -0.538703 2.832665
v -0.691166 -0.539898 2.839763
v 0.869378 -0.432952 2.796728
v 0.869378 -0.288735 2.705677
v 0.869378 -0.144397 2.613912
v 0.869378 0.000000 2.521789
v 0.869378 0.144397 2.429666
v 0.869378 0.288735 2.337263
v 0.869378 0.432952 2.244299
v -0.869378 -0.432952 2.796728
v -0.869378 -0.288735 2.705676
v -0.869378 -0.144397 2.613911
v -0.869378 0.000000 2.521787
v -0.869378 0.144397 2.429665
v -0.869378 0.288735 2.337261
v -0.869378 0.432952 2.244296
v -0.869378 -0.432952 -2.981282
v -0.869378 -0.288735 -3.074246
v -0.869378 -0.144397 -3.166650
v -0.869378 0.000000 -3.258773
v -0.869378 0.144397 -3.350895
v -0.869378 0.288735 -3.442661
v -0.869378 0.432952 -3.533712
v 0.691166 0.539898 -3.576745
v 0.460777 0.538703 -3.569648
v 0.230389 0.538305 -3.567282
v 0.000000 0.538305 -3.567282
v -0.230388 0.538305 -3.567283
v -0.460777 0.538703 -3.569649
v -0.691166 0.539898 -3.576747
v 0.691165 0.539898 2.150875
v 0.460777 0.538703 2.145301
v 0.230388 0.538305 2.143442
v -0.000000 0.538305 2.143442
v -0.230389 0.538305 2.143442
v -0.460778 0.538703 2.145299
v -0.691166 0.539898 2.150873
v -0.878187 -0.550209 2.279278
v -0.878187 -0.550359 1.514233
v -0.878187 -0.550409 0.748594
v -0.878187 -0.550409 -0.017342
v -0.878187 -0.550409 -0.783277
v -0.878187 -0.550359 -1.548979
v -0.878187 -0.550209 -2.314215
v -0.878187 0.550209 1.577230
v -0.878187 0.550359 0.811994
v -0.878187 0.550409 0.046292
v -0.878187 0.550409 -0.719643
v -0.878187 0.550409 -1.485579
v -0.878187 0.550359 -2.251217
v -0.878187 0.550209 -3.016262
v 0.878187 -0.550209 -2.314214
v 0.878187 -0.550359 -1.548978
v 0.878187 -0.550409 -0.783276
v 0.878187 -0.550409 -0.017341
v 0.878187 -0.550409 0.748595
v 0.878187 -0.550359 1.514233
v 0.878187 -0.550209 2.279278
v 0.878187 0.550209 -3.016260
v 0.878187 0.550359 -2.251215
v 0.878187 0.550409 -1.485577
v 0.878187 0.550409 -0.719641
v 0.878187 0.550409 0.046294
v 0.878187 0.550359 0.811997
v 0.878187 0.550209 1.577233
v 0.836627 -0.517615 -2.783880
v 0.836627 -0.517615 2.707356
v -0.836627 -0.517615 2.707355
v -0.836627 -0.517615 -2.783881
v 0.836627 0.517615 -3.444338
v 0.836626 0.517615 2.046899
v -0.836627 0.517615 2.046896
v -0.836627 0.517615 -3.444340
vt 0.742056 0.454040
vt 0.743341 0.423372
vt 0.774043 0.424694
vt 0.772689 0.455383
vt 0.804700 0.425996
vt 0.803406 0.456805
vt 0.835687 0.426947
vt 0.862338 0.426191
vt 0.861793 0.459301
vt 0.743493 0.221436
vt 0.743057 0.190743
vt 0.773915 0.190505
vt 0.804328 0.190384
vt 0.804903 0.220684
vt 0.834077 0.189596
vt 0.835896 0.219931
vt 0.858608 0.186446
vt 0.862466 0.217712
vt 0.742596 0.159797
vt 0.773972 0.159915
vt 0.804367 0.160909
vt 0.832533 0.161846
vt 0.853819 0.159721
vt 0.742191 0.133418
vt 0.774715 0.133903
vt 0.805980 0.136493
vt 0.833913 0.140588
vt 0.850192 0.143593
vt 0.771265 0.485963
vt 0.740728 0.484629
vt 0.769958 0.516286
vt 0.739341 0.515148
vt 0.769180 0.546713
vt 0.769459 0.570797
vt 0.736678 0.570625
vt 0.801675 0.487422
vt 0.799911 0.517274
vt 0.799198 0.546202
vt 0.800546 0.568373
vt 0.834629 0.458374
vt 0.832141 0.489530
vt 0.828768 0.519014
vt 0.826185 0.545789
vt 0.827279 0.563971
vt 0.858472 0.492036
vt 0.852888 0.522307
vt 0.845794 0.547002
vt 0.842257 0.560797
vt 0.710267 0.483292
vt 0.711485 0.452769
vt 0.680026 0.482112
vt 0.680889 0.451575
vt 0.649711 0.481526
vt 0.649897 0.450581
vt 0.623548 0.481786
vt 0.708863 0.513540
vt 0.679126 0.511789
vt 0.650495 0.510926
vt 0.626471 0.512063
vt 0.737912 0.545934
vt 0.706778 0.543752
vt 0.677185 0.540422
vt 0.650648 0.537523
vt 0.631274 0.536950
vt 0.704182 0.567695
vt 0.673754 0.562153
vt 0.647898 0.555292
vt 0.633506 0.550798
vt 0.712705 0.422149
vt 0.712836 0.221899
vt 0.712279 0.191389
vt 0.711279 0.160886
vt 0.709684 0.135054
vt 0.682166 0.420936
vt 0.682277 0.222365
vt 0.681975 0.192195
vt 0.681020 0.162868
vt 0.678619 0.138637
vt 0.651405 0.419379
vt 0.651477 0.222502
vt 0.652380 0.192323
vt 0.653039 0.164707
vt 0.650970 0.143633
vt 0.622986 0.449250
vt 0.625110 0.416504
vt 0.625063 0.221075
vt 0.627936 0.189958
vt 0.631831 0.163289
vt 0.634901 0.147158
vt 0.210862 0.403779
vt 0.210420 0.380111
vt 0.234048 0.379531
vt 0.230328 0.308241
vt 0.230844 0.281255
vt 0.258058 0.281561
vt 0.230721 0.254298
vt 0.258528 0.254040
vt 0.229743 0.232961
vt 0.258874 0.231949
vt 0.187118 0.404160
vt 0.186971 0.380540
vt 0.203322 0.307524
vt 0.204301 0.281084
vt 0.204238 0.255574
vt 0.202419 0.236132
vt 0.163064 0.404388
vt 0.163541 0.380412
vt 0.176366 0.306165
vt 0.178854 0.280139
vt 0.180568 0.256603
vt 0.179153 0.240755
vt 0.142214 0.404870
vt 0.143324 0.379710
vt 0.153137 0.304313
vt 0.157646 0.277659
vt 0.163427 0.255957
vt 0.166219 0.243893
vt 0.257719 0.378900
vt 0.258438 0.402649
vt 0.281290 0.378120
vt 0.282324 0.401893
vt 0.304892 0.376764
vt 0.306604 0.400947
vt 0.325286 0.374974
vt 0.285309 0.282207
vt 0.284821 0.309292
vt 0.311975 0.282969
vt 0.311985 0.309613
vt 0.337653 0.282910
vt 0.339216 0.309271
vt 0.359164 0.281137
vt 0.286342 0.255160
vt 0.312898 0.257297
vt 0.336710 0.259106
vt 0.354037 0.259011
vt 0.287970 0.233748
vt 0.315337 0.237782
vt 0.338637 0.243164
vt 0.351599 0.246735
vt 0.234624 0.403274
vt 0.259095 0.426547
vt 0.235151 0.427140
vt 0.259757 0.450431
vt 0.260725 0.474362
vt 0.236052 0.475370
vt 0.262076 0.494828
vt 0.283020 0.425889
vt 0.283564 0.449554
vt 0.284574 0.472628
vt 0.286673 0.491780
vt 0.307199 0.425421
vt 0.306857 0.449141
vt 0.306648 0.470901
vt 0.308529 0.487523
vt 0.327730 0.400388
vt 0.327985 0.426176
vt 0.326136 0.450696
vt 0.323403 0.471755
vt 0.321191 0.484532
vt 0.211280 0.427593
vt 0.187521 0.427970
vt 0.163620 0.428569
vt 0.143191 0.430251
vt 0.235637 0.451085
vt 0.211586 0.451372
vt 0.187960 0.451427
vt 0.164962 0.451937
vt 0.146072 0.454256
vt 0.211486 0.475266
vt 0.187803 0.474298
vt 0.165991 0.473347
vt 0.149575 0.474804
vt 0.236380 0.496110
vt 0.210769 0.495629
vt 0.186334 0.493264
vt 0.164702 0.489742
vt 0.152203 0.487231
vt 0.175048 0.880693
vt 0.209857 0.880693
vt 0.209857 0.915753
vt 0.581821 0.851010
vt 0.616631 0.851010
vt 0.616631 0.886070
vt 0.546377 0.851010
vt 0.581186 0.851010
vt 0.581186 0.886070
vt 0.617017 0.956961
vt 0.617017 0.921901
vt 0.645057 0.922842
vt 0.733185 0.635093
vt 0.774257 0.634560
vt 0.778541 0.679681
vt 0.814206 0.627339
vt 0.827393 0.671350
vt 0.850242 0.612333
vt 0.875334 0.652089
vt 0.875195 0.593851
vt 0.735348 0.596870
vt 0.770905 0.596610
vt 0.804696 0.591920
vt 0.833627 0.582617
vt 0.852138 0.571774
vt 0.236554 0.620393
vt 0.195515 0.616902
vt 0.201277 0.578459
vt 0.236917 0.581281
vt 0.205800 0.545760
vt 0.236892 0.547608
vt 0.209075 0.517113
vt 0.236661 0.518165
vt 0.155598 0.607909
vt 0.166846 0.571181
vt 0.176047 0.539935
vt 0.182852 0.513202
vt 0.117503 0.592889
vt 0.134249 0.558720
vt 0.148772 0.529901
vt 0.159607 0.506588
vt 0.088242 0.575806
vt 0.110495 0.543276
vt 0.129670 0.517372
vt 0.144466 0.497602
vt 0.272870 0.578937
vt 0.278253 0.618103
vt 0.308175 0.571197
vt 0.319842 0.609517
vt 0.341721 0.557560
vt 0.360417 0.593895
vt 0.366138 0.540866
vt 0.390914 0.574456
vt 0.268096 0.545454
vt 0.298276 0.539096
vt 0.326052 0.528160
vt 0.345366 0.514664
vt 0.264307 0.516464
vt 0.290758 0.511935
vt 0.314277 0.504556
vt 0.329469 0.494856
vt 0.124372 0.845248
vt 0.099846 0.869950
vt 0.074966 0.845248
vt 0.730179 0.679643
vt 0.683347 0.672339
vt 0.692753 0.629640
vt 0.700129 0.592948
vt 0.174412 0.845248
vt 0.149887 0.869950
vt 0.125007 0.845248
vt 0.637555 0.659379
vt 0.654621 0.618381
vt 0.667390 0.584851
vt 0.245553 0.880308
vt 0.210744 0.880308
vt 0.210743 0.845248
vt 0.593185 0.636457
vt 0.621020 0.600342
vt 0.639949 0.572955
vt 0.609613 0.956519
vt 0.581572 0.957461
vt 0.581572 0.922400
vt 0.563513 0.607557
vt 0.598405 0.580115
vt 0.622844 0.560650
vt 0.260037 0.133367
vt 0.216136 0.136920
vt 0.207532 0.087307
vt 0.173757 0.147906
vt 0.135804 0.168316
vt 0.105752 0.127003
vt 0.109217 0.190726
vt 0.259570 0.173885
vt 0.222820 0.176650
vt 0.188168 0.185219
vt 0.157940 0.199908
vt 0.137272 0.216272
vt 0.259201 0.208636
vt 0.227538 0.210189
vt 0.197988 0.215656
vt 0.173120 0.224762
vt 0.157423 0.234619
vt 0.546377 0.800969
vt 0.571079 0.825494
vt 0.546377 0.850374
vt 0.740214 0.026729
vt 0.784269 0.029338
vt 0.779901 0.070272
vt 0.741022 0.068761
vt 0.776505 0.106463
vt 0.494553 0.845248
vt 0.529362 0.845248
vt 0.529362 0.880308
vt 0.827586 0.036211
vt 0.817731 0.076425
vt 0.809995 0.110818
vt 0.388219 0.845248
vt 0.423028 0.845248
vt 0.423028 0.880308
vt 0.870360 0.049756
vt 0.853290 0.088032
vt 0.840114 0.118648
vt 0.646083 0.845132
vt 0.623822 0.818045
vt 0.646083 0.800969
vt 0.902955 0.068258
vt 0.878812 0.103555
vt 0.860032 0.129909
vt 0.024925 0.869950
vt 0.049451 0.845248
vt 0.074331 0.869950
vt 0.352774 0.845248
vt 0.387584 0.845248
vt 0.387584 0.880308
vt 0.280998 0.880693
vt 0.280998 0.915753
vt 0.246188 0.915753
vt 0.281884 0.928882
vt 0.309924 0.927941
vt 0.309924 0.963001
vt 0.702268 0.071730
vt 0.664822 0.079255
vt 0.653503 0.039623
vt 0.629896 0.092084
vt 0.611535 0.054707
vt 0.605117 0.108407
vt 0.579893 0.074277
vt 0.741699 0.105841
vt 0.706962 0.107715
vt 0.673751 0.113213
vt 0.644067 0.122038
vt 0.624669 0.133906
vt 0.313119 0.089075
vt 0.303999 0.137645
vt 0.296361 0.177750
vt 0.290830 0.210836
vt 0.365539 0.103181
vt 0.346231 0.149940
vt 0.331026 0.187071
vt 0.320399 0.217296
vt 0.416031 0.129539
vt 0.384350 0.171159
vt 0.361197 0.202584
vt 0.345206 0.227215
vt 0.450220 0.161675
vt 0.410815 0.194507
vt 0.381673 0.219670
vt 0.360766 0.237635
vt 0.494553 0.916004
vt 0.494553 0.880943
vt 0.529113 0.885100
vt 0.617266 0.886070
vt 0.617266 0.851010
vt 0.651826 0.855166
vt 0.459357 0.916004
vt 0.459358 0.880943
vt 0.493918 0.885100
vt 0.099584 0.976805
vt 0.095566 0.941976
vt 0.123622 0.941976
vt 0.977415 0.450258
vt 0.930922 0.454749
vt 0.929028 0.412773
vt 0.972255 0.185694
vt 0.928317 0.200649
vt 0.917289 0.161185
vt 0.956490 0.138142
vt 0.899070 0.126452
vt 0.930568 0.095846
vt 0.891186 0.457652
vt 0.890831 0.421493
vt 0.890657 0.211454
vt 0.883950 0.177563
vt 0.872837 0.148296
vt 0.011915 0.377273
vt 0.055620 0.377852
vt 0.053826 0.416706
vt 0.091505 0.378987
vt 0.089474 0.411240
vt 0.121472 0.379786
vt 0.119794 0.407374
vt 0.016316 0.241584
vt 0.064879 0.254943
vt 0.052307 0.297643
vt 0.103669 0.266026
vt 0.093543 0.300803
vt 0.135137 0.273968
vt 0.127987 0.303271
vt 0.042075 0.192243
vt 0.086043 0.216664
vt 0.119806 0.235865
vt 0.145688 0.249479
vt 0.071444 0.157547
vt 0.011070 0.424648
vt 0.059274 0.454933
vt 0.019434 0.470914
vt 0.071740 0.490652
vt 0.036876 0.513961
vt 0.090813 0.522082
vt 0.062698 0.551331
vt 0.092749 0.443268
vt 0.101182 0.473289
vt 0.114736 0.499679
vt 0.121566 0.435011
vt 0.126619 0.460944
vt 0.134906 0.483379
vt 0.388966 0.916004
vt 0.388967 0.880943
vt 0.423527 0.885100
vt 0.972550 0.500126
vt 0.926137 0.496607
vt 0.887050 0.493554
vt 0.060370 0.941341
vt 0.060370 0.906281
vt 0.094930 0.910438
vt 0.959042 0.548500
vt 0.914604 0.536255
vt 0.878582 0.526908
vt 0.581821 0.921765
vt 0.581822 0.886705
vt 0.616382 0.890862
vt 0.935676 0.593520
vt 0.895943 0.571129
vt 0.866084 0.554889
vt 0.250206 0.986413
vt 0.246188 0.951584
vt 0.274245 0.951584
vt 0.908403 0.625076
vt 0.462743 0.413271
vt 0.456984 0.461350
vt 0.415015 0.447172
vt 0.418442 0.407682
vt 0.380052 0.436976
vt 0.381702 0.404094
vt 0.350210 0.429979
vt 0.350616 0.401773
vt 0.441494 0.506922
vt 0.404067 0.484613
vt 0.372881 0.468150
vt 0.346259 0.456663
vt 0.416636 0.547357
vt 0.385804 0.518051
vt 0.360098 0.495871
vt 0.338726 0.479940
vt 0.414325 0.368114
vt 0.458917 0.364851
vt 0.465594 0.304973
vt 0.454098 0.261054
vt 0.504021 0.248856
vt 0.433676 0.221490
vt 0.479165 0.197850
vt 0.377831 0.371364
vt 0.423429 0.306827
vt 0.414276 0.271128
vt 0.398818 0.240020
vt 0.347429 0.373858
vt 0.388315 0.308126
vt 0.382078 0.278162
vt 0.372184 0.253024
vt 0.362776 0.308266
vt 0.362196 0.880943
vt 0.388331 0.903935
vt 0.362196 0.927305
vt 0.509916 0.431296
vt 0.517274 0.382390
vt 0.560354 0.398076
vt 0.555264 0.439261
vt 0.597345 0.409620
vt 0.594142 0.445249
vt 0.423527 0.947542
vt 0.388967 0.951699
vt 0.388966 0.916639
vt 0.515515 0.192939
vt 0.529420 0.145415
vt 0.568988 0.166845
vt 0.559393 0.206234
vt 0.602535 0.181959
vt 0.596962 0.215728
vt 0.131259 0.910438
vt 0.165819 0.906281
vt 0.165819 0.941341
vt 0.553546 0.102628
vt 0.585837 0.131823
vt 0.612588 0.152582
vt 0.088492 0.973821
vt 0.060621 0.977036
vt 0.060621 0.941976
vt 0.494416 0.951448
vt 0.459607 0.951448
vt 0.463793 0.916639
vt 0.308019 0.927305
vt 0.281884 0.904313
vt 0.308019 0.880943
vt 0.361561 0.927305
vt 0.335425 0.904313
vt 0.361561 0.880943
vt 0.652461 0.854225
vt 0.680333 0.851010
vt 0.680333 0.886070
vt 0.556680 0.480760
vt 0.510912 0.480591
vt 0.564793 0.520545
vt 0.520389 0.528958
vt 0.580137 0.556179
vt 0.539604 0.574694
vt 0.595307 0.480915
vt 0.600852 0.514384
vt 0.610700 0.542886
vt 0.774221 0.221069
vt 0.257548 0.308795
vt 0.317330 0.880308
vt 0.317329 0.845248
vt 0.352139 0.880308
vt 0.060370 0.905646
vt 0.060370 0.870585
vt 0.095179 0.905646
vt 0.095815 0.905646
vt 0.095815 0.870585
vt 0.130624 0.905646
vt 0.574417 0.957461
vt 0.546377 0.956519
vt 0.574417 0.922400
vt 0.059735 0.870585
vt 0.059735 0.905646
vt 0.024925 0.870585
vt 0.166068 0.870585
vt 0.166068 0.905646
vt 0.131259 0.870585
vt 0.316693 0.845248
vt 0.316694 0.880308
vt 0.281884 0.845249
vt 0.374311 0.927941
vt 0.373135 0.962981
vt 0.346255 0.927941
vt 0.260683 0.084765
vt 0.155607 0.102456
vt 0.281249 0.880057
vt 0.246188 0.880058
vt 0.281248 0.845248
vt 0.459108 0.880308
vt 0.459108 0.845248
vt 0.493917 0.880308
vt 0.210743 0.916004
vt 0.210743 0.880943
vt 0.245552 0.916004
vt 0.668979 0.828055
vt 0.646719 0.845132
vt 0.646719 0.800969
vt 0.175048 0.845249
vt 0.210108 0.845248
vt 0.175048 0.880058
vt 0.458473 0.845248
vt 0.458473 0.880308
vt 0.423664 0.845248
vt 0.596416 0.825849
vt 0.571714 0.850374
vt 0.571714 0.800969
vt 0.310560 0.927941
vt 0.345620 0.927941
vt 0.311501 0.955981
vt 0.696339 0.031086
vt 0.458722 0.916004
vt 0.424162 0.911847
vt 0.458722 0.880943
vt 0.245303 0.951699
vt 0.210743 0.947542
vt 0.245303 0.916639
vt 0.130375 0.941341
vt 0.095815 0.937184
vt 0.130375 0.906281
vt 0.673564 0.956961
vt 0.645693 0.953745
vt 0.673564 0.921901
vt 0.973722 0.400256
vt 0.002043 0.294718
vt 0.059486 0.941341
vt 0.024925 0.937184
vt 0.059486 0.906281
vt 0.580937 0.921765
vt 0.546377 0.917608
vt 0.580937 0.886705
vt 0.458971 0.951448
vt 0.424162 0.951448
vt 0.454785 0.916639
vt 0.159066 0.976805
vt 0.131010 0.976805
vt 0.155048 0.941976
vt 0.517077 0.303522
vt 0.597052 0.824339
vt 0.623187 0.800969
vt 0.623187 0.847331
vt 0.652077 0.921265
vt 0.617017 0.921265
vt 0.647920 0.886705
vt 0.495051 0.951448
vt 0.499238 0.916639
vt 0.529860 0.951448
vt 0.209877 0.979640
vt 0.175048 0.975623
vt 0.209877 0.951584
vt 0.175048 0.916389
vt 0.210108 0.916389
vt 0.179204 0.950949
vt 0.246188 0.916389
vt 0.281249 0.916389
vt 0.250345 0.950949
vt 0.334790 0.903935
vt 0.308655 0.927305
vt 0.308655 0.880943
vt 0.024925 0.941976
vt 0.059986 0.941976
vt 0.028141 0.969848
vn 0.000000 -1.000000 0.000000
vn 0.000000 -1.000000 -0.000300
vn 0.072000 -0.997400 -0.000200
vn 0.629000 -0.777400 -0.000100
vn 0.629100 -0.777300 0.000000
vn 0.000000 -1.000000 -0.001400
vn -0.000100 -1.000000 -0.001400
vn -0.000500 -1.000000 -0.001200
vn 0.071000 -0.997500 -0.000800
vn 0.628400 -0.777800 -0.000300
vn 0.000000 -0.999500 -0.032300
vn -0.000600 -0.999500 -0.032200
vn -0.002600 -0.999500 -0.031900
vn 0.068600 -0.997100 -0.033700
vn 0.619800 -0.783500 -0.044500
vn 0.000000 -0.975200 -0.221400
vn -0.001500 -0.975200 -0.221100
vn -0.006300 -0.975100 -0.221400
vn 0.157800 -0.956000 -0.247300
vn 0.562500 -0.815500 -0.136300
vn 0.000000 -1.000000 0.000300
vn -0.000100 -1.000000 0.001400
vn 0.000000 -1.000000 0.001400
vn -0.000600 -0.999400 0.034900
vn -0.002200 -0.928300 0.371700
vn 0.000000 -0.928100 0.372200
vn -0.000600 -1.000000 0.001200
vn -0.002700 -0.999400 0.034500
vn -0.009400 -0.927800 0.372900
vn 0.072100 -0.997400 0.000000
vn 0.072000 -0.997400 0.000200
vn 0.070800 -0.997500 0.000700
vn 0.072500 -0.996600 0.039500
vn 0.236400 -0.879400 0.413300
vn 0.628600 -0.777700 0.000100
vn 0.646700 -0.759500 0.069600
vn 0.604200 -0.772800 0.194200
vn -0.072000 -0.997400 0.000200
vn -0.072100 -0.997400 0.000000
vn -0.629100 -0.777300 0.000000
vn 0.000100 -1.000000 0.001400
vn 0.000600 -1.000000 0.001200
vn -0.070800 -0.997500 0.000700
vn -0.628600 -0.777700 0.000100
vn 0.000000 -0.999400 0.035100
vn 0.000600 -0.999400 0.034900
vn 0.002700 -0.999400 0.034500
vn -0.072500 -0.996600 0.039500
vn -0.646700 -0.759500 0.069600
vn 0.002200 -0.928300 0.371700
vn 0.009400 -0.927800 0.372900
vn -0.236400 -0.879400 0.413300
vn -0.604200 -0.772800 0.194200
vn 0.000100 -1.000000 -0.001400
vn 0.000600 -0.999500 -0.032200
vn 0.001500 -0.975200 -0.221100
vn 0.000500 -1.000000 -0.001200
vn 0.002600 -0.999500 -0.031900
vn 0.006300 -0.975100 -0.221400
vn -0.072000 -0.997400 -0.000200
vn -0.071000 -0.997500 -0.000800
vn -0.068600 -0.997100 -0.033700
vn -0.157800 -0.956000 -0.247300
vn -0.629000 -0.777400 -0.000100
vn -0.628400 -0.777800 -0.000300
vn -0.619800 -0.783500 -0.044500
vn -0.562500 -0.815500 -0.136300
vn 0.000000 1.000000 0.000000
vn 0.000000 1.000000 -0.000300
vn -0.000100 1.000000 -0.001400
vn 0.000000 1.000000 -0.001400
vn -0.000600 0.999400 -0.034900
vn 0.000000 0.999400 -0.035100
vn -0.002200 0.928300 -0.371700
vn 0.000000 0.928100 -0.372200
vn -0.000600 1.000000 -0.001200
vn -0.002700 0.999400 -0.034500
vn -0.009400 0.927800 -0.372900
vn 0.072100 0.997400 0.000000
vn 0.072000 0.997400 -0.000200
vn 0.070800 0.997500 -0.000700
vn 0.072500 0.996600 -0.039500
vn 0.236400 0.879400 -0.413300
vn 0.629100 0.777300 0.000000
vn 0.628600 0.777700 -0.000100
vn 0.646700 0.759500 -0.069600
vn 0.604200 0.772800 -0.194200
vn -0.072000 0.997400 -0.000200
vn -0.072100 0.997400 0.000000
vn -0.629100 0.777300 0.000000
vn 0.000100 1.000000 -0.001400
vn 0.000600 1.000000 -0.001200
vn -0.070800 0.997500 -0.000700
vn -0.628600 0.777700 -0.000100
vn 0.000600 0.999400 -0.034900
vn 0.002700 0.999400 -0.034500
vn -0.072500 0.996600 -0.039500
vn -0.646700 0.759500 -0.069600
vn 0.002200 0.928300 -0.371700
vn 0.009400 0.927800 -0.372900
vn -0.236400 0.879400 -0.413300
vn -0.604200 0.772800 -0.194200
vn 0.000000 1.000000 0.000300
vn 0.000100 1.000000 0.001400
vn 0.000600 0.999500 0.032200
vn 0.000000 0.999500 0.032300
vn 0.001500 0.975200 0.221100
vn 0.000500 1.000000 0.001200
vn 0.002600 0.999500 0.031900
vn 0.006300 0.975100 0.221400
vn -0.072000 0.997400 0.000200
vn -0.071000 0.997500 0.000800
vn -0.068600 0.997100 0.033700
vn -0.157800 0.956000 0.247300
vn -0.629000 0.777400 0.000100
vn -0.628400 0.777800 0.000300
vn -0.619800 0.783500 0.044500
vn -0.562500 0.815500 0.136300
vn 0.072000 0.997400 0.000200
vn 0.629000 0.777400 0.000100
vn 0.000000 1.000000 0.001400
vn -0.000100 1.000000 0.001400
vn -0.000500 1.000000 0.001200
vn 0.071000 0.997500 0.000800
vn 0.628400 0.777800 0.000300
vn -0.000600 0.999500 0.032200
vn -0.002600 0.999500 0.031900
vn 0.068600 0.997100 0.033700
vn 0.619800 0.783500 0.044500
vn 0.000000 0.975200 0.221400
vn -0.001500 0.975200 0.221100
vn -0.006300 0.975100 0.221400
vn 0.157800 0.956000 0.247300
vn 0.562500 0.815500 0.136300
vn 0.000000 0.531900 0.846800
vn 0.000000 0.537800 0.843000
vn -0.000200 0.532500 0.846400
vn 0.335900 0.503400 0.796000
vn 0.336800 0.506400 0.793800
vn 0.880500 0.254700 0.399800
vn 0.000000 0.513500 0.858100
vn -0.000500 0.513700 0.858000
vn -0.002600 0.516600 0.856200
vn 0.331400 0.495400 0.802900
vn 0.880200 0.253700 0.401100
vn 0.000000 -0.174800 0.984600
vn -0.002700 -0.174300 0.984700
vn -0.012100 -0.169000 0.985500
vn 0.319700 -0.143200 0.936600
vn 0.836900 -0.184100 0.515300
vn 0.000000 0.543600 0.839300
vn -0.000400 0.560500 0.828100
vn 0.000000 0.560700 0.828000
vn -0.001500 0.781900 0.623400
vn 0.000000 0.782000 0.623200
vn -0.000200 0.543000 0.839700
vn -0.002500 0.557900 0.829900
vn -0.006900 0.779500 0.626300
vn 0.335700 0.509500 0.792200
vn 0.330500 0.518900 0.788300
vn 0.273100 0.720400 0.637500
vn 0.880500 0.255000 0.399600
vn 0.879900 0.256300 0.399900
vn 0.878100 0.260000 0.401600
vn 0.772300 0.540100 0.334500
vn 0.000200 0.543000 0.839700
vn -0.335700 0.509500 0.792200
vn -0.336800 0.506400 0.793800
vn -0.879900 0.256300 0.399900
vn -0.880500 0.255000 0.399600
vn 0.000400 0.560500 0.828100
vn 0.002500 0.557900 0.829900
vn -0.330500 0.518900 0.788300
vn -0.878100 0.260000 0.401600
vn 0.001500 0.781900 0.623400
vn 0.006900 0.779500 0.626300
vn -0.273100 0.720400 0.637500
vn -0.772300 0.540100 0.334500
vn 0.000500 0.513700 0.858000
vn 0.002700 -0.174300 0.984700
vn 0.000200 0.532500 0.846400
vn 0.002600 0.516600 0.856200
vn 0.012100 -0.169000 0.985500
vn -0.335900 0.503400 0.796000
vn -0.331400 0.495400 0.802900
vn -0.319700 -0.143200 0.936600
vn -0.880500 0.254700 0.399800
vn -0.880200 0.253700 0.401100
vn -0.836900 -0.184100 0.515300
vn 0.000000 -0.531900 -0.846800
vn 0.000000 -0.537800 -0.843000
vn -0.000200 -0.532500 -0.846400
vn 0.335900 -0.503400 -0.796000
vn 0.336800 -0.506400 -0.793800
vn 0.880500 -0.254700 -0.399800
vn 0.000000 -0.513500 -0.858100
vn -0.000500 -0.513700 -0.858000
vn -0.002600 -0.516600 -0.856200
vn 0.331400 -0.495400 -0.802900
vn 0.880200 -0.253700 -0.401100
vn 0.000000 0.174800 -0.984600
vn -0.002700 0.174300 -0.984700
vn -0.012100 0.169000 -0.985500
vn 0.319700 0.143200 -0.936600
vn 0.836900 0.184100 -0.515300
vn 0.000000 -0.543600 -0.839300
vn -0.000400 -0.560500 -0.828100
vn 0.000000 -0.560700 -0.828000
vn -0.001500 -0.781900 -0.623400
vn -0.000200 -0.543000 -0.839700
vn -0.002500 -0.557900 -0.829900
vn -0.006900 -0.779500 -0.626300
vn 0.335700 -0.509500 -0.792200
vn 0.330500 -0.518900 -0.788300
vn 0.273100 -0.720400 -0.637500
vn 0.880500 -0.255000 -0.399600
vn 0.879900 -0.256300 -0.399900
vn 0.878100 -0.260000 -0.401600
vn 0.772300 -0.540100 -0.334500
vn 0.000200 -0.543000 -0.839700
vn -0.335700 -0.509500 -0.792200
vn -0.879900 -0.256300 -0.399900
vn -0.880500 -0.255000 -0.399600
vn 0.000400 -0.560500 -0.828100
vn 0.002500 -0.557900 -0.829900
vn -0.330500 -0.518900 -0.788300
vn -0.878100 -0.260000 -0.401600
vn 0.000000 -0.782000 -0.623200
vn 0.001500 -0.781900 -0.623400
vn 0.006900 -0.779500 -0.626300
vn -0.273100 -0.720400 -0.637500
vn -0.772300 -0.540100 -0.334500
vn 0.000500 -0.513700 -0.858000
vn 0.002700 0.174300 -0.984700
vn 0.000200 -0.532500 -0.846400
vn 0.002600 -0.516600 -0.856200
vn 0.012100 0.169000 -0.985500
vn -0.336800 -0.506400 -0.793800
vn -0.335900 -0.503400 -0.796000
vn -0.331400 -0.495400 -0.802900
vn -0.319700 0.143200 -0.936600
vn -0.880500 -0.254700 -0.399800
vn -0.880200 -0.253700 -0.401100
vn -0.836900 0.184100 -0.515300
vn 1.000000 0.000000 0.000000
vn 0.998600 -0.028000 -0.043900
vn 0.998600 -0.028000 -0.043800
vn 0.984300 -0.176200 0.000000
vn 0.984300 -0.176300 0.000000
vn 0.976400 -0.209800 -0.050100
vn 0.984300 0.176200 0.000000
vn 0.984300 0.176300 0.000000
vn 0.987400 0.150700 -0.048300
vn 0.998600 0.028000 0.043900
vn 0.998600 0.028000 0.043800
vn 0.976400 0.209800 0.050100
vn 0.987400 -0.150700 0.048300
vn -1.000000 0.000000 0.000000
vn -0.984300 0.176200 0.000000
vn -0.984300 0.176300 0.000000
vn -0.998600 0.028000 0.043800
vn -0.998600 0.028000 0.043900
vn -0.976400 0.209800 0.050100
vn -0.998600 -0.028000 -0.043800
vn -0.998600 -0.028000 -0.043900
vn -0.987400 0.150700 -0.048300
vn -0.984300 -0.176200 0.000000
vn -0.984300 -0.176300 0.000000
vn -0.976400 -0.209800 -0.050100
vn -0.987400 -0.150700 0.048300
usemtl Material
s 1
f 1/1/1 11/2/2 14/3/2
f 2/4/1 14/3/2 15/5/2
f 3/6/1 15/5/2 16/7/3
f 16/7/3 367/8/4 368/9/5
f 11/10/2 12/11/6 17/12/7
f 17/12/7 18/13/8 15/14/2
f 18/13/8 19/15/9 16/16/3
f 19/15/9 366/17/10 367/18/4
f 12/11/6 13/19/11 20/20/12
f 20/20/12 21/21/13 18/13/8
f 21/21/13 22/22/14 19/15/9
f 22/22/14 365/23/15 366/17/10
f 13/19/11 298/24/16 297/25/17
f 297/25/17 296/26/18 21/21/13
f 296/26/18 295/27/19 22/22/14
f 22/22/14 295/27/19 379/28/20
f 2/4/1 23/29/21 5/30/21
f 23/29/21 24/31/22 6/32/23
f 6/32/23 24/31/22 25/33/24
f 25/33/24 311/34/25 312/35/26
f 3/6/1 26/36/21 23/29/21
f 26/36/21 27/37/27 24/31/22
f 27/37/27 28/38/28 25/33/24
f 28/38/28 310/39/29 311/34/25
f 4/40/30 29/41/31 26/36/21
f 29/41/31 30/42/32 27/37/27
f 30/42/32 31/43/33 28/38/28
f 31/43/33 309/44/34 310/39/29
f 4/40/30 368/9/5 369/45/5
f 29/41/31 369/45/5 370/46/35
f 30/42/32 370/46/35 371/47/36
f 31/43/33 371/47/36 380/48/37
f 5/30/21 32/49/21 8/50/1
f 32/49/21 33/51/21 9/52/1
f 9/52/1 33/51/21 34/53/38
f 10/54/39 34/53/38 353/55/40
f 6/32/23 35/56/41 32/49/21
f 35/56/41 36/57/42 33/51/21
f 36/57/42 37/58/43 34/53/38
f 34/53/38 37/58/43 352/59/44
f 7/60/45 38/61/46 35/56/41
f 38/61/46 39/62/47 36/57/42
f 39/62/47 40/63/48 37/58/43
f 37/58/43 40/63/48 351/64/49
f 312/35/26 313/65/50 38/61/46
f 313/65/50 314/66/51 39/62/47
f 314/66/51 315/67/52 40/63/48
f 40/63/48 315/67/52 381/68/53
f 8/50/1 41/69/2 11/2/2
f 41/70/2 42/71/54 12/11/6
f 42/71/54 43/72/55 13/19/11
f 43/72/55 299/73/56 298/24/16
f 8/50/1 9/52/1 44/74/2
f 44/75/2 45/76/57 42/71/54
f 45/76/57 46/77/58 43/72/55
f 46/77/58 300/78/59 299/73/56
f 9/52/1 10/54/39 47/79/60
f 47/80/60 48/81/61 45/76/57
f 48/81/61 49/82/62 46/77/58
f 49/82/62 301/83/63 300/78/59
f 354/84/40 355/85/64 47/79/60
f 355/86/64 356/87/65 48/81/61
f 356/87/65 357/88/66 49/82/62
f 49/82/62 357/88/66 382/89/67
f 60/90/68 63/91/69 51/92/69
f 63/93/69 64/94/70 52/95/71
f 64/94/70 65/96/72 53/97/73
f 65/96/72 339/98/74 340/99/75
f 61/100/68 66/101/69 63/91/69
f 66/102/69 67/103/76 64/94/70
f 67/103/76 68/104/77 65/96/72
f 68/104/77 338/105/78 339/98/74
f 62/106/79 69/107/80 66/101/69
f 69/108/80 70/109/81 67/103/76
f 70/109/81 71/110/82 68/104/77
f 71/110/82 337/111/83 338/105/78
f 62/106/79 375/112/84 374/113/84
f 69/108/80 374/114/84 373/115/85
f 70/109/81 373/115/85 372/116/86
f 71/110/82 372/116/86 383/117/87
f 51/92/69 72/118/69 54/119/68
f 72/118/69 73/120/69 55/121/68
f 73/120/69 74/122/88 56/123/89
f 56/123/89 74/122/88 362/124/90
f 52/95/71 75/125/91 72/126/69
f 75/125/91 76/127/92 73/128/69
f 76/127/92 77/129/93 74/130/88
f 74/130/88 77/129/93 363/131/94
f 53/97/73 78/132/95 75/125/91
f 78/132/95 79/133/96 76/127/92
f 79/133/96 80/134/97 77/129/93
f 77/129/93 80/134/97 364/135/98
f 340/99/75 341/136/99 78/132/95
f 341/136/99 342/137/100 79/133/96
f 342/137/100 343/138/101 80/134/97
f 80/134/97 343/138/101 386/139/102
f 50/140/68 54/119/68 81/141/103
f 57/142/103 81/141/103 82/143/104
f 82/143/104 83/144/105 59/145/106
f 59/145/106 83/144/105 348/146/107
f 54/119/68 55/121/68 84/147/103
f 84/147/103 85/148/108 82/143/104
f 85/148/108 86/149/109 83/144/105
f 86/149/109 349/150/110 348/146/107
f 55/121/68 56/123/89 87/151/111
f 87/151/111 88/152/112 85/148/108
f 88/152/112 89/153/113 86/149/109
f 89/153/113 350/154/114 349/150/110
f 361/155/90 360/156/115 87/151/111
f 360/156/115 359/157/116 88/152/112
f 359/157/116 358/158/117 89/153/113
f 89/153/113 358/158/117 385/159/118
f 50/140/68 57/142/103 90/160/103
f 60/90/68 90/160/103 91/161/103
f 61/100/68 91/161/103 92/162/119
f 92/162/119 376/163/120 375/112/84
f 58/164/121 93/165/122 90/160/103
f 93/165/122 94/166/123 91/161/103
f 94/166/123 95/167/124 92/162/119
f 95/167/124 377/168/125 376/163/120
f 59/145/106 96/169/126 93/165/122
f 96/169/126 97/170/127 94/166/123
f 97/170/127 98/171/128 95/167/124
f 98/171/128 378/172/129 377/168/125
f 347/173/130 346/174/131 96/169/126
f 346/174/131 345/175/132 97/170/127
f 345/175/132 344/176/133 98/171/128
f 98/171/128 344/176/133 384/177/134
f 109/178/135 112/179/135 100/180/136
f 112/181/135 113/182/137 101/183/136
f 113/184/137 114/185/138 102/186/139
f 102/187/139 114/188/138 318/189/140
f 110/190/141 115/191/142 112/192/135
f 115/191/142 116/193/143 113/194/137
f 116/193/143 117/195/144 114/196/138
f 114/196/138 117/195/144 317/197/145
f 111/198/146 118/199/147 115/191/142
f 118/199/147 119/200/148 116/193/143
f 119/200/148 120/201/149 117/195/144
f 117/195/144 120/201/149 316/202/150
f 312/35/26 311/34/25 118/199/147
f 311/34/25 310/39/29 119/200/148
f 310/39/29 309/44/34 120/201/149
f 120/201/149 309/44/34 380/48/37
f 99/203/136 100/204/136 121/205/151
f 103/206/151 121/205/151 122/207/152
f 104/208/153 122/207/152 123/209/154
f 105/210/155 123/209/154 346/174/131
f 100/204/136 101/211/136 124/212/156
f 124/212/156 125/213/157 122/207/152
f 125/213/157 126/214/158 123/209/154
f 126/214/158 345/175/132 346/174/131
f 101/211/136 102/215/139 127/216/159
f 127/216/159 128/217/160 125/213/157
f 128/217/160 129/218/161 126/214/158
f 129/218/161 344/176/133 345/175/132
f 319/219/162 320/220/163 127/216/159
f 320/220/163 321/221/164 128/217/160
f 321/221/164 322/222/165 129/218/161
f 129/218/161 322/222/165 384/177/134
f 103/206/151 130/223/151 106/224/136
f 130/223/151 131/225/166 107/226/136
f 131/225/166 132/227/167 108/228/168
f 132/227/167 327/229/169 326/230/170
f 104/208/153 133/231/171 130/223/151
f 133/231/171 134/232/172 131/225/166
f 134/232/172 135/233/173 132/227/167
f 135/233/173 328/234/174 327/229/169
f 105/210/155 136/235/175 133/231/171
f 136/235/175 137/236/176 134/232/172
f 137/236/176 138/237/177 135/233/173
f 138/237/177 329/238/178 328/234/174
f 347/173/130 348/146/107 136/235/175
f 348/146/107 349/150/110 137/236/176
f 349/150/110 350/154/114 138/237/177
f 138/237/177 350/154/114 385/159/118
f 99/239/136 106/240/136 139/241/135
f 109/242/135 139/243/135 140/244/179
f 110/190/141 140/244/179 141/245/180
f 111/198/146 141/245/180 313/65/50
f 106/246/136 107/247/136 142/248/181
f 142/249/181 143/250/182 140/244/179
f 143/250/182 144/251/183 141/245/180
f 144/251/183 314/66/51 313/65/50
f 107/252/136 108/253/168 145/254/184
f 145/255/184 146/256/185 143/250/182
f 146/256/185 147/257/186 144/251/183
f 147/257/186 315/67/52 314/66/51
f 108/258/168 326/259/170 325/260/187
f 145/255/184 325/261/187 324/262/188
f 146/256/185 324/262/188 323/263/189
f 147/257/186 323/263/189 381/68/53
f 158/264/190 161/265/190 149/266/191
f 149/266/191 161/265/190 162/267/192
f 162/267/192 163/268/193 151/269/194
f 151/269/194 163/268/193 306/270/195
f 159/271/196 164/272/197 161/265/190
f 164/272/197 165/273/198 162/267/192
f 165/273/198 166/274/199 163/268/193
f 163/268/193 166/274/199 307/275/200
f 160/276/201 167/277/202 164/272/197
f 167/277/202 168/278/203 165/273/198
f 168/278/203 169/279/204 166/274/199
f 166/274/199 169/279/204 308/280/205
f 340/99/75 339/98/74 167/277/202
f 339/98/74 338/105/78 168/278/203
f 338/105/78 337/111/83 169/279/204
f 169/279/204 337/111/83 383/117/87
f 148/281/191 149/282/191 170/283/206
f 152/284/206 170/285/206 171/286/207
f 153/287/208 171/286/207 172/288/209
f 172/288/209 297/25/17 298/24/16
f 149/289/191 150/290/191 173/291/210
f 173/292/210 174/293/211 171/286/207
f 174/293/211 175/294/212 172/288/209
f 175/294/212 296/26/18 297/25/17
f 150/295/191 151/296/194 176/297/213
f 176/298/213 177/299/214 174/293/211
f 177/299/214 178/300/215 175/294/212
f 178/300/215 295/27/19 296/26/18
f 305/301/216 304/302/217 176/303/213
f 304/304/217 303/305/218 177/299/214
f 303/305/218 302/306/219 178/300/215
f 178/300/215 302/306/219 379/28/20
f 152/307/206 179/308/206 155/309/191
f 179/310/206 180/311/220 156/312/191
f 156/313/191 180/314/220 181/315/221
f 181/316/221 332/317/222 333/318/223
f 152/284/206 153/287/208 182/319/224
f 182/319/224 183/320/225 180/321/220
f 183/320/225 184/322/226 181/323/221
f 184/322/226 331/324/227 332/325/222
f 153/287/208 154/326/228 185/327/229
f 185/327/229 186/328/230 183/320/225
f 186/328/230 187/329/231 184/322/226
f 187/329/231 330/330/232 331/324/227
f 298/24/16 299/73/56 185/327/229
f 299/73/56 300/78/59 186/328/230
f 300/78/59 301/83/63 187/329/231
f 187/329/231 301/83/63 382/89/67
f 155/331/191 188/332/190 158/264/190
f 188/332/190 189/333/233 159/271/196
f 159/271/196 189/333/233 190/334/234
f 190/334/234 341/136/99 340/99/75
f 156/335/191 191/336/235 188/332/190
f 191/336/235 192/337/236 189/333/233
f 192/337/236 193/338/237 190/334/234
f 193/338/237 342/137/100 341/136/99
f 157/339/238 194/340/239 191/336/235
f 194/340/239 195/341/240 192/337/236
f 195/341/240 196/342/241 193/338/237
f 196/342/241 343/138/101 342/137/100
f 157/339/238 333/343/223 334/344/242
f 194/340/239 334/344/242 335/345/243
f 195/341/240 335/345/243 336/346/244
f 196/342/241 336/346/244 386/139/102
f 197/347/245 207/348/245 210/349/245
f 198/350/245 210/351/245 211/352/245
f 199/353/245 211/354/245 212/355/246
f 200/356/247 212/357/246 304/358/217
f 207/359/245 208/360/245 213/361/245
f 210/362/245 213/363/245 214/364/245
f 211/365/245 214/364/245 215/366/246
f 212/367/246 215/366/246 303/305/218
f 208/360/245 209/368/248 216/369/248
f 213/363/245 216/370/248 217/371/249
f 214/364/245 217/371/249 218/372/250
f 215/366/246 218/372/250 302/306/219
f 209/368/248 368/9/5 367/8/4
f 216/370/248 367/18/4 366/17/10
f 217/371/249 366/17/10 365/23/15
f 218/372/250 365/23/15 379/28/20
f 198/373/245 219/374/245 201/375/245
f 219/374/245 220/376/245 202/377/245
f 220/376/245 221/378/251 203/379/251
f 221/378/251 374/113/84 375/112/84
f 199/380/245 222/381/245 219/382/245
f 222/381/245 223/383/245 220/384/245
f 223/383/245 224/385/252 221/386/251
f 224/385/252 373/115/85 374/114/84
f 200/387/247 225/388/247 222/381/245
f 225/388/247 226/389/246 223/383/245
f 226/389/246 227/390/253 224/385/252
f 227/390/253 372/116/86 373/115/85
f 305/391/216 306/270/195 225/388/247
f 306/270/195 307/275/200 226/389/246
f 307/275/200 308/280/205 227/390/253
f 227/390/253 308/280/205 383/117/87
f 197/392/245 201/375/245 228/393/245
f 204/394/245 228/393/245 229/395/245
f 205/396/245 229/395/245 230/397/254
f 206/398/255 230/397/254 320/220/163
f 201/375/245 202/377/245 231/399/245
f 228/393/245 231/399/245 232/400/245
f 229/395/245 232/400/245 233/401/254
f 230/397/254 233/401/254 321/221/164
f 202/377/245 203/379/251 234/402/251
f 231/399/245 234/402/251 235/403/252
f 232/400/245 235/403/252 236/404/256
f 233/401/254 236/404/256 322/222/165
f 203/379/251 375/112/84 376/163/120
f 234/402/251 376/163/120 377/168/125
f 235/403/252 377/168/125 378/172/129
f 236/404/256 378/172/129 384/177/134
f 204/405/245 237/406/245 207/407/245
f 237/408/245 238/409/245 208/360/245
f 238/409/245 239/410/248 209/368/248
f 239/410/248 369/45/5 368/9/5
f 205/411/245 240/412/245 237/413/245
f 240/414/245 241/415/245 238/409/245
f 241/415/245 242/416/249 239/410/248
f 242/416/249 370/46/35 369/45/5
f 206/417/255 243/418/255 240/419/245
f 243/420/255 244/421/254 241/415/245
f 244/421/254 245/422/257 242/416/249
f 245/422/257 371/47/36 370/46/35
f 319/423/162 318/424/140 243/425/255
f 318/426/140 317/197/145 244/421/254
f 317/197/145 316/202/150 245/422/257
f 245/422/257 316/202/150 380/48/37
f 246/427/258 256/428/258 259/429/258
f 247/430/258 259/429/258 260/431/258
f 248/432/258 260/431/258 261/433/259
f 249/434/259 261/433/259 360/156/115
f 256/428/258 257/435/258 262/436/258
f 259/429/258 262/436/258 263/437/258
f 260/431/258 263/437/258 264/438/260
f 261/433/259 264/438/260 359/157/116
f 257/435/258 258/439/261 265/440/262
f 262/436/258 265/440/262 266/441/262
f 263/437/258 266/441/262 267/442/263
f 264/438/260 267/442/263 358/158/117
f 258/439/261 326/230/170 327/229/169
f 265/440/262 327/229/169 328/234/174
f 266/441/262 328/234/174 329/238/178
f 267/442/263 329/238/178 385/159/118
f 247/430/258 268/443/258 250/444/258
f 268/445/258 269/446/258 251/447/258
f 269/446/258 270/448/264 252/449/264
f 270/448/264 334/344/242 333/343/223
f 248/432/258 271/450/258 268/443/258
f 271/451/258 272/452/258 269/446/258
f 272/452/258 273/453/265 270/448/264
f 273/453/265 335/345/243 334/344/242
f 249/434/259 274/454/259 271/450/258
f 274/455/259 275/456/260 272/452/258
f 275/456/260 276/457/266 273/453/265
f 276/457/266 336/346/244 335/345/243
f 361/155/90 362/124/90 274/454/259
f 362/458/90 363/131/94 275/456/260
f 363/131/94 364/135/98 276/457/266
f 276/457/266 364/135/98 386/139/102
f 246/459/258 250/460/258 277/461/258
f 253/462/258 277/463/258 278/464/258
f 254/465/258 278/464/258 279/466/267
f 255/467/267 279/466/267 355/85/64
f 250/468/258 251/469/258 280/470/258
f 277/471/258 280/472/258 281/473/258
f 278/474/258 281/473/258 282/475/268
f 279/476/267 282/475/268 356/87/65
f 251/477/258 252/478/264 283/479/265
f 280/472/258 283/480/265 284/481/265
f 281/473/258 284/481/265 285/482/269
f 282/475/268 285/482/269 357/88/66
f 252/483/264 333/484/223 332/485/222
f 283/480/265 332/325/222 331/324/227
f 284/481/265 331/324/227 330/330/232
f 285/482/269 330/330/232 382/89/67
f 253/486/258 286/487/258 256/488/258
f 286/489/258 287/490/258 257/491/258
f 287/492/258 288/493/261 258/494/261
f 288/495/261 325/496/187 326/497/170
f 254/465/258 289/498/258 286/499/258
f 289/498/258 290/500/258 287/501/258
f 290/500/258 291/502/262 288/503/261
f 291/502/262 324/262/188 325/261/187
f 255/467/267 292/504/267 289/498/258
f 292/504/267 293/505/268 290/500/258
f 293/505/268 294/506/270 291/502/262
f 294/506/270 323/263/189 324/262/188
f 354/84/40 353/55/40 292/504/267
f 353/55/40 352/59/44 293/505/268
f 352/59/44 351/64/49 294/506/270
f 294/506/270 351/64/49 381/68/53
f 2/4/1 1/1/1 14/3/2
f 3/6/1 2/4/1 15/5/2
f 4/40/30 3/6/1 16/7/3
f 4/40/30 16/7/3 368/9/5
f 14/507/2 11/10/2 17/12/7
f 14/507/2 17/12/7 15/14/2
f 15/14/2 18/13/8 16/16/3
f 16/16/3 19/15/9 367/18/4
f 17/12/7 12/11/6 20/20/12
f 17/12/7 20/20/12 18/13/8
f 18/13/8 21/21/13 19/15/9
f 19/15/9 22/22/14 366/17/10
f 20/20/12 13/19/11 297/25/17
f 20/20/12 297/25/17 21/21/13
f 21/21/13 296/26/18 22/22/14
f 365/23/15 22/22/14 379/28/20
f 1/1/1 2/4/1 5/30/21
f 5/30/21 23/29/21 6/32/23
f 7/60/45 6/32/23 25/33/24
f 7/60/45 25/33/24 312/35/26
f 2/4/1 3/6/1 23/29/21
f 23/29/21 26/36/21 24/31/22
f 24/31/22 27/37/27 25/33/24
f 25/33/24 28/38/28 311/34/25
f 3/6/1 4/40/30 26/36/21
f 26/36/21 29/41/31 27/37/27
f 27/37/27 30/42/32 28/38/28
f 28/38/28 31/43/33 310/39/29
f 29/41/31 4/40/30 369/45/5
f 30/42/32 29/41/31 370/46/35
f 31/43/33 30/42/32 371/47/36
f 309/44/34 31/43/33 380/48/37
f 1/1/1 5/30/21 8/50/1
f 8/50/1 32/49/21 9/52/1
f 10/54/39 9/52/1 34/53/38
f 354/84/40 10/54/39 353/55/40
f 5/30/21 6/32/23 32/49/21
f 32/49/21 35/56/41 33/51/21
f 33/51/21 36/57/42 34/53/38
f 353/55/40 34/53/38 352/59/44
f 6/32/23 7/60/45 35/56/41
f 35/56/41 38/61/46 36/57/42
f 36/57/42 39/62/47 37/58/43
f 352/59/44 37/58/43 351/64/49
f 7/60/45 312/35/26 38/61/46
f 38/61/46 313/65/50 39/62/47
f 39/62/47 314/66/51 40/63/48
f 351/64/49 40/63/48 381/68/53
f 1/1/1 8/50/1 11/2/2
f 11/10/2 41/70/2 12/11/6
f 12/11/6 42/71/54 13/19/11
f 13/19/11 43/72/55 298/24/16
f 41/69/2 8/50/1 44/74/2
f 41/70/2 44/75/2 42/71/54
f 42/71/54 45/76/57 43/72/55
f 43/72/55 46/77/58 299/73/56
f 44/74/2 9/52/1 47/79/60
f 44/75/2 47/80/60 45/76/57
f 45/76/57 48/81/61 46/77/58
f 46/77/58 49/82/62 300/78/59
f 10/54/39 354/84/40 47/79/60
f 47/80/60 355/86/64 48/81/61
f 48/81/61 356/87/65 49/82/62
f 301/83/63 49/82/62 382/89/67
f 50/140/68 60/90/68 51/92/69
f 51/508/69 63/93/69 52/95/71
f 52/95/71 64/94/70 53/97/73
f 53/97/73 65/96/72 340/99/75
f 60/90/68 61/100/68 63/91/69
f 63/93/69 66/102/69 64/94/70
f 64/94/70 67/103/76 65/96/72
f 65/96/72 68/104/77 339/98/74
f 61/100/68 62/106/79 66/101/69
f 66/102/69 69/108/80 67/103/76
f 67/103/76 70/109/81 68/104/77
f 68/104/77 71/110/82 338/105/78
f 69/107/80 62/106/79 374/113/84
f 70/109/81 69/108/80 373/115/85
f 71/110/82 70/109/81 372/116/86
f 337/111/83 71/110/82 383/117/87
f 50/140/68 51/92/69 54/119/68
f 54/119/68 72/118/69 55/121/68
f 55/121/68 73/120/69 56/123/89
f 361/155/90 56/123/89 362/124/90
f 51/508/69 52/95/71 72/126/69
f 72/126/69 75/125/91 73/128/69
f 73/128/69 76/127/92 74/130/88
f 362/458/90 74/130/88 363/131/94
f 52/95/71 53/97/73 75/125/91
f 75/125/91 78/132/95 76/127/92
f 76/127/92 79/133/96 77/129/93
f 363/131/94 77/129/93 364/135/98
f 53/97/73 340/99/75 78/132/95
f 78/132/95 341/136/99 79/133/96
f 79/133/96 342/137/100 80/134/97
f 364/135/98 80/134/97 386/139/102
f 57/142/103 50/140/68 81/141/103
f 58/164/121 57/142/103 82/143/104
f 58/164/121 82/143/104 59/145/106
f 347/173/130 59/145/106 348/146/107
f 81/141/103 54/119/68 84/147/103
f 81/141/103 84/147/103 82/143/104
f 82/143/104 85/148/108 83/144/105
f 83/144/105 86/149/109 348/146/107
f 84/147/103 55/121/68 87/151/111
f 84/147/103 87/151/111 85/148/108
f 85/148/108 88/152/112 86/149/109
f 86/149/109 89/153/113 349/150/110
f 56/123/89 361/155/90 87/151/111
f 87/151/111 360/156/115 88/152/112
f 88/152/112 359/157/116 89/153/113
f 350/154/114 89/153/113 385/159/118
f 60/90/68 50/140/68 90/160/103
f 61/100/68 60/90/68 91/161/103
f 62/106/79 61/100/68 92/162/119
f 62/106/79 92/162/119 375/112/84
f 57/142/103 58/164/121 90/160/103
f 90/160/103 93/165/122 91/161/103
f 91/161/103 94/166/123 92/162/119
f 92/162/119 95/167/124 376/163/120
f 58/164/121 59/145/106 93/165/122
f 93/165/122 96/169/126 94/166/123
f 94/166/123 97/170/127 95/167/124
f 95/167/124 98/171/128 377/168/125
f 59/145/106 347/173/130 96/169/126
f 96/169/126 346/174/131 97/170/127
f 97/170/127 345/175/132 98/171/128
f 378/172/129 98/171/128 384/177/134
f 99/509/136 109/510/135 100/511/136
f 100/512/136 112/513/135 101/514/136
f 101/515/136 113/516/137 102/517/139
f 319/518/162 102/519/139 318/520/140
f 109/242/135 110/190/141 112/192/135
f 112/192/135 115/191/142 113/194/137
f 113/194/137 116/193/143 114/196/138
f 318/426/140 114/196/138 317/197/145
f 110/190/141 111/198/146 115/191/142
f 115/191/142 118/199/147 116/193/143
f 116/193/143 119/200/148 117/195/144
f 317/197/145 117/195/144 316/202/150
f 111/198/146 312/35/26 118/199/147
f 118/199/147 311/34/25 119/200/148
f 119/200/148 310/39/29 120/201/149
f 316/202/150 120/201/149 380/48/37
f 103/206/151 99/203/136 121/205/151
f 104/208/153 103/206/151 122/207/152
f 105/210/155 104/208/153 123/209/154
f 347/173/130 105/210/155 346/174/131
f 121/205/151 100/204/136 124/212/156
f 121/205/151 124/212/156 122/207/152
f 122/207/152 125/213/157 123/209/154
f 123/209/154 126/214/158 346/174/131
f 124/212/156 101/211/136 127/216/159
f 124/212/156 127/216/159 125/213/157
f 125/213/157 128/217/160 126/214/158
f 126/214/158 129/218/161 345/175/132
f 102/215/139 319/219/162 127/216/159
f 127/216/159 320/220/163 128/217/160
f 128/217/160 321/221/164 129/218/161
f 344/176/133 129/218/161 384/177/134
f 99/203/136 103/206/151 106/224/136
f 106/224/136 130/223/151 107/226/136
f 107/226/136 131/225/166 108/228/168
f 108/228/168 132/227/167 326/230/170
f 103/206/151 104/208/153 130/223/151
f 130/223/151 133/231/171 131/225/166
f 131/225/166 134/232/172 132/227/167
f 132/227/167 135/233/173 327/229/169
f 104/208/153 105/210/155 133/231/171
f 133/231/171 136/235/175 134/232/172
f 134/232/172 137/236/176 135/233/173
f 135/233/173 138/237/177 328/234/174
f 105/210/155 347/173/130 136/235/175
f 136/235/175 348/146/107 137/236/176
f 137/236/176 349/150/110 138/237/177
f 329/238/178 138/237/177 385/159/118
f 109/521/135 99/522/136 139/523/135
f 110/190/141 109/242/135 140/244/179
f 111/198/146 110/190/141 141/245/180
f 312/35/26 111/198/146 313/65/50
f 139/524/135 106/525/136 142/526/181
f 139/243/135 142/249/181 140/244/179
f 140/244/179 143/250/182 141/245/180
f 141/245/180 144/251/183 313/65/50
f 142/527/181 107/528/136 145/529/184
f 142/249/181 145/255/184 143/250/182
f 143/250/182 146/256/185 144/251/183
f 144/251/183 147/257/186 314/66/51
f 145/530/184 108/531/168 325/532/187
f 146/256/185 145/255/184 324/262/188
f 147/257/186 146/256/185 323/263/189
f 315/67/52 147/257/186 381/68/53
f 148/533/191 158/264/190 149/266/191
f 150/534/191 149/266/191 162/267/192
f 150/534/191 162/267/192 151/269/194
f 305/391/216 151/269/194 306/270/195
f 158/264/190 159/271/196 161/265/190
f 161/265/190 164/272/197 162/267/192
f 162/267/192 165/273/198 163/268/193
f 306/270/195 163/268/193 307/275/200
f 159/271/196 160/276/201 164/272/197
f 164/272/197 167/277/202 165/273/198
f 165/273/198 168/278/203 166/274/199
f 307/275/200 166/274/199 308/280/205
f 160/276/201 340/99/75 167/277/202
f 167/277/202 339/98/74 168/278/203
f 168/278/203 338/105/78 169/279/204
f 308/280/205 169/279/204 383/117/87
f 152/535/206 148/536/191 170/537/206
f 153/287/208 152/284/206 171/286/207
f 154/326/228 153/287/208 172/288/209
f 154/326/228 172/288/209 298/24/16
f 170/538/206 149/539/191 173/540/210
f 170/285/206 173/292/210 171/286/207
f 171/286/207 174/293/211 172/288/209
f 172/288/209 175/294/212 297/25/17
f 173/541/210 150/542/191 176/543/213
f 173/292/210 176/298/213 174/293/211
f 174/293/211 177/299/214 175/294/212
f 175/294/212 178/300/215 296/26/18
f 151/544/194 305/545/216 176/546/213
f 176/298/213 304/304/217 177/299/214
f 177/299/214 303/305/218 178/300/215
f 295/27/19 178/300/215 379/28/20
f 148/547/191 152/548/206 155/549/191
f 155/550/191 179/551/206 156/552/191
f 157/553/238 156/554/191 181/555/221
f 157/556/238 181/557/221 333/558/223
f 179/559/206 152/284/206 182/319/224
f 179/559/206 182/319/224 180/321/220
f 180/321/220 183/320/225 181/323/221
f 181/323/221 184/322/226 332/325/222
f 182/319/224 153/287/208 185/327/229
f 182/319/224 185/327/229 183/320/225
f 183/320/225 186/328/230 184/322/226
f 184/322/226 187/329/231 331/324/227
f 154/326/228 298/24/16 185/327/229
f 185/327/229 299/73/56 186/328/230
f 186/328/230 300/78/59 187/329/231
f 330/330/232 187/329/231 382/89/67
f 148/533/191 155/331/191 158/264/190
f 158/264/190 188/332/190 159/271/196
f 160/276/201 159/271/196 190/334/234
f 160/276/201 190/334/234 340/99/75
f 155/331/191 156/335/191 188/332/190
f 188/332/190 191/336/235 189/333/233
f 189/333/233 192/337/236 190/334/234
f 190/334/234 193/338/237 341/136/99
f 156/335/191 157/339/238 191/336/235
f 191/336/235 194/340/239 192/337/236
f 192/337/236 195/341/240 193/338/237
f 193/338/237 196/342/241 342/137/100
f 194/340/239 157/339/238 334/344/242
f 195/341/240 194/340/239 335/345/243
f 196/342/241 195/341/240 336/346/244
f 343/138/101 196/342/241 386/139/102
f 198/560/245 197/561/245 210/562/245
f 199/563/245 198/564/245 211/565/245
f 200/566/247 199/567/245 212/568/246
f 305/569/216 200/570/247 304/571/217
f 210/572/245 207/359/245 213/361/245
f 211/365/245 210/362/245 214/364/245
f 212/367/246 211/365/245 215/366/246
f 304/304/217 212/367/246 303/305/218
f 213/361/245 208/360/245 216/369/248
f 214/364/245 213/363/245 217/371/249
f 215/366/246 214/364/245 218/372/250
f 303/305/218 215/366/246 302/306/219
f 216/369/248 209/368/248 367/8/4
f 217/371/249 216/370/248 366/17/10
f 218/372/250 217/371/249 365/23/15
f 302/306/219 218/372/250 379/28/20
f 197/392/245 198/373/245 201/375/245
f 201/375/245 219/374/245 202/377/245
f 202/377/245 220/376/245 203/379/251
f 203/379/251 221/378/251 375/112/84
f 198/573/245 199/380/245 219/382/245
f 219/382/245 222/381/245 220/384/245
f 220/384/245 223/383/245 221/386/251
f 221/386/251 224/385/252 374/114/84
f 199/380/245 200/387/247 222/381/245
f 222/381/245 225/388/247 223/383/245
f 223/383/245 226/389/246 224/385/252
f 224/385/252 227/390/253 373/115/85
f 200/387/247 305/391/216 225/388/247
f 225/388/247 306/270/195 226/389/246
f 226/389/246 307/275/200 227/390/253
f 372/116/86 227/390/253 383/117/87
f 204/394/245 197/392/245 228/393/245
f 205/396/245 204/394/245 229/395/245
f 206/398/255 205/396/245 230/397/254
f 319/219/162 206/398/255 320/220/163
f 228/393/245 201/375/245 231/399/245
f 229/395/245 228/393/245 232/400/245
f 230/397/254 229/395/245 233/401/254
f 320/220/163 230/397/254 321/221/164
f 231/399/245 202/377/245 234/402/251
f 232/400/245 231/399/245 235/403/252
f 233/401/254 232/400/245 236/404/256
f 321/221/164 233/401/254 322/222/165
f 234/402/251 203/379/251 376/163/120
f 235/403/252 234/402/251 377/168/125
f 236/404/256 235/403/252 378/172/129
f 322/222/165 236/404/256 384/177/134
f 197/574/245 204/575/245 207/576/245
f 207/359/245 237/408/245 208/360/245
f 208/360/245 238/409/245 209/368/248
f 209/368/248 239/410/248 368/9/5
f 204/577/245 205/578/245 237/579/245
f 237/408/245 240/414/245 238/409/245
f 238/409/245 241/415/245 239/410/248
f 239/410/248 242/416/249 369/45/5
f 205/580/245 206/581/255 240/582/245
f 240/414/245 243/420/255 241/415/245
f 241/415/245 244/421/254 242/416/249
f 242/416/249 245/422/257 370/46/35
f 206/583/255 319/584/162 243/585/255
f 243/420/255 318/426/140 244/421/254
f 244/421/254 317/197/145 245/422/257
f 371/47/36 245/422/257 380/48/37
f 247/430/258 246/427/258 259/429/258
f 248/432/258 247/430/258 260/431/258
f 249/434/259 248/432/258 261/433/259
f 361/155/90 249/434/259 360/156/115
f 259/429/258 256/428/258 262/436/258
f 260/431/258 259/429/258 263/437/258
f 261/433/259 260/431/258 264/438/260
f 360/156/115 261/433/259 359/157/116
f 262/436/258 257/435/258 265/440/262
f 263/437/258 262/436/258 266/441/262
f 264/438/260 263/437/258 267/442/263
f 359/157/116 264/438/260 358/158/117
f 265/440/262 258/439/261 327/229/169
f 266/441/262 265/440/262 328/234/174
f 267/442/263 266/441/262 329/238/178
f 358/158/117 267/442/263 385/159/118
f 246/427/258 247/430/258 250/444/258
f 250/586/258 268/445/258 251/447/258
f 251/447/258 269/446/258 252/449/264
f 252/449/264 270/448/264 333/343/223
f 247/430/258 248/432/258 268/443/258
f 268/445/258 271/451/258 269/446/258
f 269/446/258 272/452/258 270/448/264
f 270/448/264 273/453/265 334/344/242
f 248/432/258 249/434/259 271/450/258
f 271/451/258 274/455/259 272/452/258
f 272/452/258 275/456/260 273/453/265
f 273/453/265 276/457/266 335/345/243
f 249/434/259 361/155/90 274/454/259
f 274/455/259 362/458/90 275/456/260
f 275/456/260 363/131/94 276/457/266
f 336/346/244 276/457/266 386/139/102
f 253/587/258 246/588/258 277/589/258
f 254/465/258 253/462/258 278/464/258
f 255/467/267 254/465/258 279/466/267
f 354/84/40 255/467/267 355/85/64
f 277/590/258 250/591/258 280/592/258
f 278/474/258 277/471/258 281/473/258
f 279/476/267 278/474/258 282/475/268
f 355/86/64 279/476/267 356/87/65
f 280/593/258 251/594/258 283/595/265
f 281/473/258 280/472/258 284/481/265
f 282/475/268 281/473/258 285/482/269
f 356/87/65 282/475/268 357/88/66
f 283/596/265 252/597/264 332/598/222
f 284/481/265 283/480/265 331/324/227
f 285/482/269 284/481/265 330/330/232
f 357/88/66 285/482/269 382/89/67
f 246/599/258 253/600/258 256/601/258
f 256/602/258 286/603/258 257/604/258
f 257/605/258 287/606/258 258/607/261
f 258/608/261 288/609/261 326/610/170
f 253/462/258 254/465/258 286/499/258
f 286/499/258 289/498/258 287/501/258
f 287/501/258 290/500/258 288/503/261
f 288/503/261 291/502/262 325/261/187
f 254/465/258 255/467/267 289/498/258
f 289/498/258 292/504/267 290/500/258
f 290/500/258 293/505/268 291/502/262
f 291/502/262 294/506/270 324/262/188
f 255/467/267 354/84/40 292/504/267
f 292/504/267 353/55/40 293/505/268
f 293/505/268 352/59/44 294/506/270
f 323/263/189 294/506/270 381/68/53
